<?xml version="1.0" encoding="UTF-8"?>
<svg width="125px" height="125px" viewBox="0 0 125 125" version="1.1" xmlns="http://www.w3.org/2000/svg" xmlns:xlink="http://www.w3.org/1999/xlink">
    <!-- Generator: Sketch 63.1 (92452) - https://sketch.com -->
    <title>profits-up</title>
    <desc>Created with Sketch.</desc>
    <g id="profits-up" stroke="none" stroke-width="1" fill="none" fill-rule="evenodd">
        <polyline id="Path-10" stroke="#83421E" stroke-width="0.75" stroke-linecap="round" stroke-linejoin="round" points="5 2 5 122.5 120 122.5"></polyline>
        <path id="Path-11" d="M120.655293,16.9918568 L120.612665,17.6571592 L120.099118,25.6721562 C120.085875,25.8788391 119.90759,26.0356533 119.700907,26.0224105 C119.52006,26.010823 119.377393,25.872875 119.353424,25.7001076 L119.350653,25.6241996 L119.772,19.038 L116.757679,23.6762737 L113.81658,28.2010031 L93.8165798,59.7010031 L93.6546108,59.9561043 L93.3709045,59.8520786 L78.689,54.469 L69.3371212,73.6642385 L69.1711808,74.0048531 L68.8322949,73.8354102 L60.11,69.474 L39.7986674,96.226766 L39.6499129,96.4226865 L39.4109551,96.3642746 L17.134,90.919 L8.28472123,101.244047 C8.16678583,101.381638 7.97079177,101.412779 7.81829266,101.328121 L7.75595323,101.284721 C7.61836194,101.166786 7.58722056,100.970792 7.67187936,100.818293 L7.71527877,100.755953 L16.7152788,90.2559532 L16.8652265,90.0810142 L17.0890449,90.1357254 L39.35,95.577 L59.7013326,68.773234 L59.8894541,68.5254643 L68.828,72.994 L78.1628788,53.8357615 L78.3111806,53.5313526 L78.6290955,53.6479214 L93.345,59.043 L113.185584,27.7956294 L116.128847,23.2675325 L119.143,18.629 L113.295985,21.6886652 C113.135415,21.7726745 112.941858,21.7288694 112.831658,21.5936695 L112.789872,21.5302372 C112.705862,21.3696677 112.749667,21.17611 112.884867,21.0659099 L112.9483,21.024124 L120.06459,17.3009103 L120.655293,16.9918568 Z" fill="#8A4222" fill-rule="nonzero"></path>
    </g>
</svg>